  @0 00
  @1 00
  @2 00
  @3 00
  @4 00
  @5 00
  @6 00
  @7 00
  @8 00
  @9 00
  @a 00
  @b 00
  @c 00
  @d 00
  @e 00
  @f 00
 @10 00
 @11 00
 @12 00
 @13 00
 @14 00
 @15 00
 @16 00
 @17 00
 @18 00
 @19 00
 @1a 00
 @1b 00
 @1c 00
 @1d 00
 @1e 00
 @1f 00
 @20 20
 @21 04
 @22 04
 @23 04
 @24 20
 @25 20
 @26 20
 @27 18
 @28 01
 @29 20
 @2a 06
 @2b 05
 @2c 81
 @2d d0
 @2e c4
 @2f 00
 @30 11
 @31 51
 @32 44
 @33 01
 @34 07
 @35 08
 @36 05
 @37 06
 @38 07
 @39 03
 @3a 48
 @3b 02
 @3c 07
 @3d 06
 @3e 03
 @3f 48
 @40 02
 @41 07
 @42 06
 @43 03
 @44 48
 @45 02
 @46 07
 @47 06
 @48 03
 @49 48
 @4a 02
 @4b 07
 @4c 06
 @4d 03
 @4e 48
 @4f 02
 @50 07
 @51 06
 @52 02
 @53 05
 @54 06
 @55 05
 @56 06
 @57 05
 @58 06
 @59 05
 @5a 06
 @5b 05
 @5c 06
 @5d 05
 @5e 06
 @5f 05
 @60 06
 @61 05
 @62 06
 @63 05
 @64 06
 @65 05
 @66 06
 @67 03
 @68 06
 @69 03
 @6a 06
 @6b 03
 @6c 06
 @6d 03
 @6e 06
 @6f 03
 @70 06
 @71 03
 @72 06
 @73 03
 @74 06
 @75 03
 @76 06
 @77 03
 @78 06
 @79 03
 @7a 03
 @7b c8
 @7c 01
 @7d 86
 @7e 06
 @7f 03
 @80 c8
 @81 01
 @82 86
 @83 06
 @84 03
 @85 c8
 @86 01
 @87 86
 @88 06
 @89 03
 @8a c8
 @8b 01
 @8c 86
 @8d 06
 @8e 03
 @8f c8
 @90 01
 @91 86
 @92 06
 @93 01
 @94 05
 @95 86
 @96 05
 @97 86
 @98 05
 @99 86
 @9a 05
 @9b 86
 @9c 05
 @9d 86
 @9e 05
 @9f 86
 @a0 05
 @a1 86
 @a2 05
 @a3 86
 @a4 05
 @a5 86
 @a6 05
 @a7 86
 @a8 02
 @a9 06
 @aa 02
 @ab 06
 @ac 02
 @ad 06
 @ae 02
 @af 06
 @b0 02
 @b1 06
 @b2 02
 @b3 06
 @b4 02
 @b5 06
 @b6 02
 @b7 06
 @b8 02
 @b9 06
 @ba 02
 @bb 04
 @bc 04
 @bd 14
 @be 84
 @bf 84
 @c0 84
 @c1 20
 @c2 9c
 @c3 14
 @c4 84
 @c5 84
 @c6 84
 @c7 20
 @c8 9c
 @c9 14
 @ca 84
 @cb 84
 @cc 84
 @cd 20
 @ce 9c
 @cf 14
 @d0 84
 @d1 84
 @d2 84
 @d3 20
 @d4 9c
 @d5 1e
 @d6 06
 @d7 08
 @d8 f6
 @d9 8e
 @da 08
 @db 87
 @dc f6
 @dd 00
 @de 00
 @df 00
 @e0 00
 @e1 00
 @e2 00
 @e3 00
 @e4 00
 @e5 00
 @e6 00
 @e7 00
 @e8 00
 @e9 00
 @ea 00
 @eb 00
 @ec 00
 @ed 00
 @ee 00
 @ef 00
 @f0 00
 @f1 00
 @f2 00
 @f3 00
 @f4 00
 @f5 00
 @f6 00
 @f7 00
 @f8 00
 @f9 00
 @fa 00
 @fb 00
 @fc 00
 @fd 00
 @fe 00
 @ff 00
@100 00
@101 00
@102 00
@103 00
@104 00
@105 00
@106 00
@107 00
@108 00
@109 00
@10a 00
@10b 00
@10c 00
@10d 00
@10e 00
@10f 00
@110 00
@111 00
@112 00
@113 00
@114 00
@115 00
@116 00
@117 00
@118 00
@119 00
@11a 00
@11b 00
@11c 00
@11d 00
@11e 00
@11f 00
@120 00
@121 00
@122 00
@123 00
@124 00
@125 00
@126 00
@127 00
@128 00
@129 00
@12a 00
@12b 00
@12c 00
@12d 00
@12e 00
@12f 00
@130 00
@131 00
@132 00
@133 00
@134 00
@135 00
@136 00
@137 00
@138 00
@139 00
@13a 00
@13b 00
@13c 00
@13d 00
@13e 00
@13f 00
@140 00
@141 00
@142 00
@143 00
@144 00
@145 00
@146 00
@147 00
@148 00
@149 00
@14a 00
@14b 00
@14c 00
@14d 00
@14e 00
@14f 00
@150 00
@151 00
@152 00
@153 00
@154 00
@155 00
@156 00
@157 00
@158 00
@159 00
@15a 00
@15b 00
@15c 00
@15d 00
@15e 00
@15f 00
@160 00
@161 00
@162 00
@163 00
@164 00
@165 00
@166 00
@167 00
@168 00
@169 00
@16a 00
@16b 00
@16c 00
@16d 00
@16e 00
@16f 00
@170 00
@171 00
@172 00
@173 00
@174 00
@175 00
@176 00
@177 00
@178 00
@179 00
@17a 00
@17b 00
@17c 00
@17d 00
@17e 00
@17f 00
@180 00
@181 00
@182 00
@183 00
@184 00
@185 00
@186 00
@187 00
@188 00
@189 00
@18a 00
@18b 00
@18c 00
@18d 00
@18e 00
@18f 00
@190 00
@191 00
@192 00
@193 00
@194 00
@195 00
@196 00
@197 00
@198 00
@199 00
@19a 00
@19b 00
@19c 00
@19d 00
@19e 00
@19f 00
@1a0 00
@1a1 00
@1a2 00
@1a3 00
@1a4 00
@1a5 00
@1a6 00
@1a7 00
@1a8 00
@1a9 00
@1aa 00
@1ab 00
@1ac 00
@1ad 00
@1ae 00
@1af 00
@1b0 00
@1b1 00
@1b2 00
@1b3 00
@1b4 00
@1b5 00
@1b6 00
@1b7 00
@1b8 00
@1b9 00
@1ba 00
@1bb 00
@1bc 00
@1bd 00
@1be 00
@1bf 00
@1c0 00
@1c1 00
@1c2 00
@1c3 00
@1c4 00
@1c5 00
@1c6 00
@1c7 00
@1c8 00
@1c9 00
@1ca 00
@1cb 00
@1cc 00
@1cd 00
@1ce 00
@1cf 00
@1d0 00
@1d1 00
@1d2 00
@1d3 00
@1d4 00
@1d5 00
@1d6 00
@1d7 00
@1d8 00
@1d9 00
@1da 00
@1db 00
@1dc 00
@1dd 00
@1de 00
@1df 00
@1e0 00
@1e1 00
@1e2 00
@1e3 00
@1e4 00
@1e5 00
@1e6 00
@1e7 00
@1e8 00
@1e9 00
@1ea 00
@1eb 00
@1ec 00
@1ed 00
@1ee 00
@1ef 00
@1f0 00
@1f1 00
@1f2 00
@1f3 00
@1f4 00
@1f5 00
@1f6 00
@1f7 00
@1f8 00
@1f9 00
@1fa 00
@1fb 00
@1fc 00
@1fd 00
@1fe 00
@1ff 00
@200 00
@201 00
@202 00
@203 00
@204 00
@205 00
@206 00
@207 00
@208 00
@209 00
@20a 00
@20b 00
@20c 00
@20d 00
@20e 00
@20f 00
@210 00
@211 00
@212 00
@213 00
@214 00
@215 00
@216 00
@217 00
@218 00
@219 00
@21a 00
@21b 00
@21c 00
@21d 00
@21e 00
@21f 00
@220 00
@221 00
@222 00
@223 00
@224 00
@225 00
@226 00
@227 00
@228 00
@229 00
@22a 00
@22b 00
@22c 00
@22d 00
@22e 00
@22f 00
@230 00
@231 00
@232 00
@233 00
@234 00
@235 00
@236 00
@237 00
@238 00
@239 00
@23a 00
@23b 00
@23c 00
@23d 00
@23e 00
@23f 00
@240 00
@241 00
@242 00
@243 00
@244 00
@245 00
@246 00
@247 00
@248 00
@249 00
@24a 00
@24b 00
@24c 00
@24d 00
@24e 00
@24f 00
@250 00
@251 00
@252 00
@253 00
@254 00
@255 00
@256 00
@257 00
@258 00
@259 00
@25a 00
@25b 00
@25c 00
@25d 00
@25e 00
@25f 00
@260 00
@261 00
@262 00
@263 00
@264 00
@265 00
@266 00
@267 00
@268 00
@269 00
@26a 00
@26b 00
@26c 00
@26d 00
@26e 00
@26f 00
@270 00
@271 00
@272 00
@273 00
@274 00
@275 00
@276 00
@277 00
@278 00
@279 00
@27a 00
@27b 00
@27c 00
@27d 00
@27e 00
@27f 00
@280 00
@281 00
@282 00
@283 00
@284 00
@285 00
@286 00
@287 00
@288 00
@289 00
@28a 00
@28b 00
@28c 00
@28d 00
@28e 00
@28f 00
@290 00
@291 00
@292 00
@293 00
@294 00
@295 00
@296 00
@297 00
@298 00
@299 00
@29a 00
@29b 00
@29c 00
@29d 00
@29e 00
@29f 00
@2a0 00
@2a1 00
@2a2 00
@2a3 00
@2a4 00
@2a5 00
@2a6 00
@2a7 00
@2a8 00
@2a9 00
@2aa 00
@2ab 00
@2ac 00
@2ad 00
@2ae 00
@2af 00
@2b0 00
@2b1 00
@2b2 00
@2b3 00
@2b4 00
@2b5 00
@2b6 00
@2b7 00
@2b8 00
@2b9 00
@2ba 00
@2bb 00
@2bc 00
@2bd 00
@2be 00
@2bf 00
@2c0 00
@2c1 00
@2c2 00
@2c3 00
@2c4 00
@2c5 00
@2c6 00
@2c7 00
@2c8 00
@2c9 00
@2ca 00
@2cb 00
@2cc 00
@2cd 00
@2ce 00
@2cf 00
@2d0 00
@2d1 00
@2d2 00
@2d3 00
@2d4 00
@2d5 00
@2d6 00
@2d7 00
@2d8 00
@2d9 00
@2da 00
@2db 00
@2dc 00
@2dd 00
@2de 00
@2df 00
@2e0 00
@2e1 00
@2e2 00
@2e3 00
@2e4 00
@2e5 00
@2e6 00
@2e7 00
@2e8 00
@2e9 00
@2ea 00
@2eb 00
@2ec 00
@2ed 00
@2ee 00
@2ef 00
@2f0 00
@2f1 00
@2f2 00
@2f3 00
@2f4 00
@2f5 00
@2f6 00
@2f7 00
@2f8 00
@2f9 00
@2fa 00
@2fb 00
@2fc 00
@2fd 00
@2fe 00
@2ff 00
@300 00
@301 00
@302 00
@303 00
@304 00
@305 00
@306 00
@307 00
@308 00
@309 00
@30a 00
@30b 00
@30c 00
@30d 00
@30e 00
@30f 00
@310 00
@311 00
@312 00
@313 00
@314 00
@315 00
@316 00
@317 00
@318 00
@319 00
@31a 00
@31b 00
@31c 00
@31d 00
@31e 00
@31f 00
@320 00
@321 00
@322 00
@323 00
@324 00
@325 00
@326 00
@327 00
@328 00
@329 00
@32a 00
@32b 00
@32c 00
@32d 00
@32e 00
@32f 00
@330 00
@331 00
@332 00
@333 00
@334 00
@335 00
@336 00
@337 00
@338 00
@339 00
@33a 00
@33b 00
@33c 00
@33d 00
@33e 00
@33f 00
@340 00
@341 00
@342 00
@343 00
@344 00
@345 00
@346 00
@347 00
@348 00
@349 00
@34a 00
@34b 00
@34c 00
@34d 00
@34e 00
@34f 00
@350 00
@351 00
@352 00
@353 00
@354 00
@355 00
@356 00
@357 00
@358 00
@359 00
@35a 00
@35b 00
@35c 00
@35d 00
@35e 00
@35f 00
@360 00
@361 00
@362 00
@363 00
@364 00
@365 00
@366 00
@367 00
@368 00
@369 00
@36a 00
@36b 00
@36c 00
@36d 00
@36e 00
@36f 00
@370 00
@371 00
@372 00
@373 00
@374 00
@375 00
@376 00
@377 00
@378 00
@379 00
@37a 00
@37b 00
@37c 00
@37d 00
@37e 00
@37f 00
@380 00
@381 00
@382 00
@383 00
@384 00
@385 00
@386 00
@387 00
@388 00
@389 00
@38a 00
@38b 00
@38c 00
@38d 00
@38e 00
@38f 00
@390 00
@391 00
@392 00
@393 00
@394 00
@395 00
@396 00
@397 00
@398 00
@399 00
@39a 00
@39b 00
@39c 00
@39d 00
@39e 00
@39f 00
@3a0 00
@3a1 00
@3a2 00
@3a3 00
@3a4 00
@3a5 00
@3a6 00
@3a7 00
@3a8 00
@3a9 00
@3aa 00
@3ab 00
@3ac 00
@3ad 00
@3ae 00
@3af 00
@3b0 00
@3b1 00
@3b2 00
@3b3 00
@3b4 00
@3b5 00
@3b6 00
@3b7 00
@3b8 00
@3b9 00
@3ba 00
@3bb 00
@3bc 00
@3bd 00
@3be 00
@3bf 00
@3c0 00
@3c1 00
@3c2 00
@3c3 00
@3c4 00
@3c5 00
@3c6 00
@3c7 00
@3c8 00
@3c9 00
@3ca 00
@3cb 00
@3cc 00
@3cd 00
@3ce 00
@3cf 00
@3d0 00
@3d1 00
@3d2 00
@3d3 00
@3d4 00
@3d5 00
@3d6 00
@3d7 00
@3d8 00
@3d9 00
@3da 00
@3db 00
@3dc 00
@3dd 00
@3de 00
@3df 00
@3e0 00
@3e1 00
@3e2 00
@3e3 00
@3e4 00
@3e5 00
@3e6 00
@3e7 00
@3e8 00
@3e9 00
@3ea 00
@3eb 00
@3ec 00
@3ed 00
@3ee 00
@3ef 00
@3f0 00
@3f1 00
@3f2 00
@3f3 00
@3f4 00
@3f5 00
@3f6 00
@3f7 00
@3f8 00
@3f9 00
@3fa 00
@3fb 00
@3fc 00
@3fd 00
@3fe 00
@3ff 00
@400 00
@401 00
@402 00
@403 00
@404 00
@405 00
@406 00
@407 00
@408 00
@409 00
@40a 00
@40b 00
@40c 00
@40d 00
@40e 00
@40f 00
@410 00
@411 00
@412 00
@413 00
@414 00
@415 00
@416 00
@417 00
@418 00
@419 00
@41a 00
@41b 00
@41c 00
@41d 00
@41e 00
@41f 00
@420 00
@421 00
@422 00
@423 00
@424 00
@425 00
@426 00
@427 00
@428 00
@429 00
@42a 00
@42b 00
@42c 00
@42d 00
@42e 00
@42f 00
@430 00
@431 00
@432 00
@433 00
@434 00
@435 00
@436 00
@437 00
@438 00
@439 00
@43a 00
@43b 00
@43c 00
@43d 00
@43e 00
@43f 00
@440 00
@441 00
@442 00
@443 00
@444 00
@445 00
@446 00
@447 00
@448 00
@449 00
@44a 00
@44b 00
@44c 00
@44d 00
@44e 00
@44f 00
@450 00
@451 00
@452 00
@453 00
@454 00
@455 00
@456 00
@457 00
@458 00
@459 00
@45a 00
@45b 00
@45c 00
@45d 00
@45e 00
@45f 00
@460 00
@461 00
@462 00
@463 00
@464 00
@465 00
@466 00
@467 00
@468 00
@469 00
@46a 00
@46b 00
@46c 00
@46d 00
@46e 00
@46f 00
@470 00
@471 00
@472 00
@473 00
@474 00
@475 00
@476 00
@477 00
@478 00
@479 00
@47a 00
@47b 00
@47c 00
@47d 00
@47e 00
@47f 00
@480 00
@481 00
@482 00
@483 00
@484 00
@485 00
@486 00
@487 00
@488 00
@489 00
@48a 00
@48b 00
@48c 00
@48d 00
@48e 00
@48f 00
@490 00
@491 00
@492 00
@493 00
@494 00
@495 00
@496 00
@497 00
@498 00
@499 00
@49a 00
@49b 00
@49c 00
@49d 00
@49e 00
@49f 00
@4a0 00
@4a1 00
@4a2 00
@4a3 00
@4a4 00
@4a5 00
@4a6 00
@4a7 00
@4a8 00
@4a9 00
@4aa 00
@4ab 00
@4ac 00
@4ad 00
@4ae 00
@4af 00
@4b0 00
@4b1 00
@4b2 00
@4b3 00
@4b4 00
@4b5 00
@4b6 00
@4b7 00
@4b8 00
@4b9 00
@4ba 00
@4bb 00
@4bc 00
@4bd 00
@4be 00
@4bf 00
@4c0 00
@4c1 00
@4c2 00
@4c3 00
@4c4 00
@4c5 00
@4c6 00
@4c7 00
@4c8 00
@4c9 00
@4ca 00
@4cb 00
@4cc 00
@4cd 00
@4ce 00
@4cf 00
@4d0 00
@4d1 00
@4d2 00
@4d3 00
@4d4 00
@4d5 00
@4d6 00
@4d7 00
@4d8 00
@4d9 00
@4da 00
@4db 00
@4dc 00
@4dd 00
@4de 00
@4df 00
@4e0 00
@4e1 00
@4e2 00
@4e3 00
@4e4 00
@4e5 00
@4e6 00
@4e7 00
@4e8 00
@4e9 00
@4ea 00
@4eb 00
@4ec 00
@4ed 00
@4ee 00
@4ef 00
@4f0 00
@4f1 00
@4f2 00
@4f3 00
@4f4 00
@4f5 00
@4f6 00
@4f7 00
@4f8 00
@4f9 00
@4fa 00
@4fb 00
@4fc 00
@4fd 00
@4fe 00
@4ff 00
@500 00
@501 00
@502 00
@503 00
@504 00
@505 00
@506 00
@507 00
@508 00
@509 00
@50a 00
@50b 00
@50c 00
@50d 00
@50e 00
@50f 00
@510 00
@511 00
@512 00
@513 00
@514 00
@515 00
@516 00
@517 00
@518 00
@519 00
@51a 00
@51b 00
@51c 00
@51d 00
@51e 00
@51f 00
@520 00
@521 00
@522 00
@523 00
@524 00
@525 00
@526 00
@527 00
@528 00
@529 00
@52a 00
@52b 00
@52c 00
@52d 00
@52e 00
@52f 00
@530 00
@531 00
@532 00
@533 00
@534 00
@535 00
@536 00
@537 00
@538 00
@539 00
@53a 00
@53b 00
@53c 00
@53d 00
@53e 00
@53f 00
@540 00
@541 00
@542 00
@543 00
@544 00
@545 00
@546 00
@547 00
@548 00
@549 00
@54a 00
@54b 00
@54c 00
@54d 00
@54e 00
@54f 00
@550 00
@551 00
@552 00
@553 00
@554 00
@555 00
@556 00
@557 00
@558 00
@559 00
@55a 00
@55b 00
@55c 00
@55d 00
@55e 00
@55f 00
@560 00
@561 00
@562 00
@563 00
@564 00
@565 00
@566 00
@567 00
@568 00
@569 00
@56a 00
@56b 00
@56c 00
@56d 00
@56e 00
@56f 00
@570 00
@571 00
@572 00
@573 00
@574 00
@575 00
@576 00
@577 00
@578 00
@579 00
@57a 00
@57b 00
@57c 00
@57d 00
@57e 00
@57f 00
@580 00
@581 00
@582 00
@583 00
@584 00
@585 00
@586 00
@587 00
@588 00
@589 00
@58a 00
@58b 00
@58c 00
@58d 00
@58e 00
@58f 00
@590 00
@591 00
@592 00
@593 00
@594 00
@595 00
@596 00
@597 00
@598 00
@599 00
@59a 00
@59b 00
@59c 00
@59d 00
@59e 00
@59f 00
@5a0 00
@5a1 00
@5a2 00
@5a3 00
@5a4 00
@5a5 00
@5a6 00
@5a7 00
@5a8 00
@5a9 00
@5aa 00
@5ab 00
@5ac 00
@5ad 00
@5ae 00
@5af 00
@5b0 00
@5b1 00
@5b2 00
@5b3 00
@5b4 00
@5b5 00
@5b6 00
@5b7 00
@5b8 00
@5b9 00
@5ba 00
@5bb 00
@5bc 00
@5bd 00
@5be 00
@5bf 00
@5c0 00
@5c1 00
@5c2 00
@5c3 00
@5c4 00
@5c5 00
@5c6 00
@5c7 00
@5c8 00
@5c9 00
@5ca 00
@5cb 00
@5cc 00
@5cd 00
@5ce 00
@5cf 00
@5d0 00
@5d1 00
@5d2 00
@5d3 00
@5d4 00
@5d5 00
@5d6 00
@5d7 00
@5d8 00
@5d9 00
@5da 00
@5db 00
@5dc 00
@5dd 00
@5de 00
@5df 00
@5e0 00
@5e1 00
@5e2 00
@5e3 00
@5e4 00
@5e5 00
@5e6 00
@5e7 00
@5e8 00
@5e9 00
@5ea 00
@5eb 00
@5ec 00
@5ed 00
@5ee 00
@5ef 00
@5f0 00
@5f1 00
@5f2 00
@5f3 00
@5f4 00
@5f5 00
@5f6 00
@5f7 00
@5f8 00
@5f9 00
@5fa 00
@5fb 00
@5fc 00
@5fd 00
@5fe 00
@5ff 00
@600 00
@601 00
@602 00
@603 00
@604 00
@605 00
@606 00
@607 00
@608 00
@609 00
@60a 00
@60b 00
@60c 00
@60d 00
@60e 00
@60f 00
@610 00
@611 00
@612 00
@613 00
@614 00
@615 00
@616 00
@617 00
@618 00
@619 00
@61a 00
@61b 00
@61c 00
@61d 00
@61e 00
@61f 00
@620 00
@621 00
@622 00
@623 00
@624 00
@625 00
@626 00
@627 00
@628 00
@629 00
@62a 00
@62b 00
@62c 00
@62d 00
@62e 00
@62f 00
@630 00
@631 00
@632 00
@633 00
@634 00
@635 00
@636 00
@637 00
@638 00
@639 00
@63a 00
@63b 00
@63c 00
@63d 00
@63e 00
@63f 00
@640 00
@641 00
@642 00
@643 00
@644 00
@645 00
@646 00
@647 00
@648 00
@649 00
@64a 00
@64b 00
@64c 00
@64d 00
@64e 00
@64f 00
@650 00
@651 00
@652 00
@653 00
@654 00
@655 00
@656 00
@657 00
@658 00
@659 00
@65a 00
@65b 00
@65c 00
@65d 00
@65e 00
@65f 00
@660 00
@661 00
@662 00
@663 00
@664 00
@665 00
@666 00
@667 00
@668 00
@669 00
@66a 00
@66b 00
@66c 00
@66d 00
@66e 00
@66f 00
@670 00
@671 00
@672 00
@673 00
@674 00
@675 00
@676 00
@677 00
@678 00
@679 00
@67a 00
@67b 00
@67c 00
@67d 00
@67e 00
@67f 00
@680 00
@681 00
@682 00
@683 00
@684 00
@685 00
@686 00
@687 00
@688 00
@689 00
@68a 00
@68b 00
@68c 00
@68d 00
@68e 00
@68f 00
@690 00
@691 00
@692 00
@693 00
@694 00
@695 00
@696 00
@697 00
@698 00
@699 00
@69a 00
@69b 00
@69c 00
@69d 00
@69e 00
@69f 00
@6a0 00
@6a1 00
@6a2 00
@6a3 00
@6a4 00
@6a5 00
@6a6 00
@6a7 00
@6a8 00
@6a9 00
@6aa 00
@6ab 00
@6ac 00
@6ad 00
@6ae 00
@6af 00
@6b0 00
@6b1 00
@6b2 00
@6b3 00
@6b4 00
@6b5 00
@6b6 00
@6b7 00
@6b8 00
@6b9 00
@6ba 00
@6bb 00
@6bc 00
@6bd 00
@6be 00
@6bf 00
@6c0 00
@6c1 00
@6c2 00
@6c3 00
@6c4 00
@6c5 00
@6c6 00
@6c7 00
@6c8 00
@6c9 00
@6ca 00
@6cb 00
@6cc 00
@6cd 00
@6ce 00
@6cf 00
@6d0 00
@6d1 00
@6d2 00
@6d3 00
@6d4 00
@6d5 00
@6d6 00
@6d7 00
@6d8 00
@6d9 00
@6da 00
@6db 00
@6dc 00
@6dd 00
@6de 00
@6df 00
@6e0 00
@6e1 00
@6e2 00
@6e3 00
@6e4 00
@6e5 00
@6e6 00
@6e7 00
@6e8 00
@6e9 00
@6ea 00
@6eb 00
@6ec 00
@6ed 00
@6ee 00
@6ef 00
@6f0 00
@6f1 00
@6f2 00
@6f3 00
@6f4 00
@6f5 00
@6f6 00
@6f7 00
@6f8 00
@6f9 00
@6fa 00
@6fb 00
@6fc 00
@6fd 00
@6fe 00
@6ff 00
@700 00
@701 00
@702 00
@703 00
@704 00
@705 00
@706 00
@707 00
@708 00
@709 00
@70a 00
@70b 00
@70c 00
@70d 00
@70e 00
@70f 00
@710 00
@711 00
@712 00
@713 00
@714 00
@715 00
@716 00
@717 00
@718 00
@719 00
@71a 00
@71b 00
@71c 00
@71d 00
@71e 00
@71f 00
@720 00
@721 00
@722 00
@723 00
@724 00
@725 00
@726 00
@727 00
@728 00
@729 00
@72a 00
@72b 00
@72c 00
@72d 00
@72e 00
@72f 00
@730 00
@731 00
@732 00
@733 00
@734 00
@735 00
@736 00
@737 00
@738 00
@739 00
@73a 00
@73b 00
@73c 00
@73d 00
@73e 00
@73f 00
@740 00
@741 00
@742 00
@743 00
@744 00
@745 00
@746 00
@747 00
@748 00
@749 00
@74a 00
@74b 00
@74c 00
@74d 00
@74e 00
@74f 00
@750 00
@751 00
@752 00
@753 00
@754 00
@755 00
@756 00
@757 00
@758 00
@759 00
@75a 00
@75b 00
@75c 00
@75d 00
@75e 00
@75f 00
@760 00
@761 00
@762 00
@763 00
@764 00
@765 00
@766 00
@767 00
@768 00
@769 00
@76a 00
@76b 00
@76c 00
@76d 00
@76e 00
@76f 00
@770 00
@771 00
@772 00
@773 00
@774 00
@775 00
@776 00
@777 00
@778 00
@779 00
@77a 00
@77b 00
@77c 00
@77d 00
@77e 00
@77f 00
@780 00
@781 00
@782 00
@783 00
@784 00
@785 00
@786 00
@787 00
@788 00
@789 00
@78a 00
@78b 00
@78c 00
@78d 00
@78e 00
@78f 00
@790 00
@791 00
@792 00
@793 00
@794 00
@795 00
@796 00
@797 00
@798 00
@799 00
@79a 00
@79b 00
@79c 00
@79d 00
@79e 00
@79f 00
@7a0 00
@7a1 00
@7a2 00
@7a3 00
@7a4 00
@7a5 00
@7a6 00
@7a7 00
@7a8 00
@7a9 00
@7aa 00
@7ab 00
@7ac 00
@7ad 00
@7ae 00
@7af 00
@7b0 00
@7b1 00
@7b2 00
@7b3 00
@7b4 00
@7b5 00
@7b6 00
@7b7 00
@7b8 00
@7b9 00
@7ba 00
@7bb 00
@7bc 00
@7bd 00
@7be 00
@7bf 00
@7c0 00
@7c1 00
@7c2 00
@7c3 00
@7c4 00
@7c5 00
@7c6 00
@7c7 00
@7c8 00
@7c9 00
@7ca 00
@7cb 00
@7cc 00
@7cd 00
@7ce 00
@7cf 00
@7d0 00
@7d1 00
@7d2 00
@7d3 00
@7d4 00
@7d5 00
@7d6 00
@7d7 00
@7d8 00
@7d9 00
@7da 00
@7db 00
@7dc 00
@7dd 00
@7de 00
@7df 00
@7e0 00
@7e1 00
@7e2 00
@7e3 00
@7e4 00
@7e5 00
@7e6 00
@7e7 00
@7e8 00
@7e9 00
@7ea 00
@7eb 00
@7ec 00
@7ed 00
@7ee 00
@7ef 00
